Project 3 Technical Report
…
Some important features for our analysis include the analyzing of our
profits and production based on product lines. We need to aggregate our
production data by months and product line types to get a full
visualization of our costs and profits based on the specific products we
are producing. We will also include a column of the factory the product
was produced in for further analysis of our individual factories.

For clarity regarding our individual products, we must convert our
data into a long format, placing each product within a Productline
column as opposed to our current format with columns labeled by each
product we produce. We would also like to include an aggregation of the
production costs for each of these units by multiplying our aggregated
cost per unit by the total number of units produced.

## # A tibble: 2,250 × 11
## # Groups:   Month [29]
##    week       factory_id weekly_cost outlier Month   TOTAL_UNITS AGGREGATE_CPU
##    <date>          <dbl>       <dbl>   <dbl> <chr>         <dbl>         <dbl>
##  1 2003-01-12          0       1236.       0 2003-01          30          41.2
##  2 2003-01-12          0       1236.       0 2003-01          30          41.2
##  3 2003-01-12          0       1236.       0 2003-01          30          41.2
##  4 2003-01-12          0       1236.       0 2003-01          30          41.2
##  5 2003-01-12          0       1236.       0 2003-01          30          41.2
##  6 2003-01-12          0       1236.       0 2003-01          30          41.2
##  7 2003-01-12          1       2851.       0 2003-01          34          83.8
##  8 2003-01-12          1       2851.       0 2003-01          34          83.8
##  9 2003-01-12          1       2851.       0 2003-01          34          83.8
## 10 2003-01-12          1       2851.       0 2003-01          34          83.8
## # ℹ 2,240 more rows
## # ℹ 4 more variables: outlier_flag <dbl>, PRODUCTLINE <chr>,
## #   UNITS_PRODUCED <dbl>, AGG_PRODUCT_COSTS <dbl>
…
Implement Regression Modeling

With our CPU’s estimated, we will now incorporate them into our
product line data set. The aggregated average CPU’s will remain inside
the data set for comparison of mathematical discrepancies. We will
incorporate the regression information by mutating the regression CPU’s
into our elongated data set, excluding product lines that did not
produce anything. We will also include calculations of our factory base
costs my mutating in the regression base intercepts by our factory
ID’s.

## # A tibble: 2,250 × 14
## # Groups:   Month [29]
##    week       factory_id weekly_cost outlier Month   TOTAL_UNITS AGGREGATE_CPU
##    <date>          <dbl>       <dbl>   <dbl> <chr>         <dbl>         <dbl>
##  1 2003-01-12          0       1236.       0 2003-01          30          41.2
##  2 2003-01-12          0       1236.       0 2003-01          30          41.2
##  3 2003-01-12          0       1236.       0 2003-01          30          41.2
##  4 2003-01-12          0       1236.       0 2003-01          30          41.2
##  5 2003-01-12          0       1236.       0 2003-01          30          41.2
##  6 2003-01-12          0       1236.       0 2003-01          30          41.2
##  7 2003-01-12          1       2851.       0 2003-01          34          83.8
##  8 2003-01-12          1       2851.       0 2003-01          34          83.8
##  9 2003-01-12          1       2851.       0 2003-01          34          83.8
## 10 2003-01-12          1       2851.       0 2003-01          34          83.8
## # ℹ 2,240 more rows
## # ℹ 7 more variables: outlier_flag <dbl>, PRODUCTLINE <chr>,
## #   UNITS_PRODUCED <dbl>, AGG_PRODUCT_COSTS <dbl>, REGRESSION_CPU <dbl>,
## #   REG_FACTORY_BASE_COST <dbl>, REG_TTL_PROD_COST_NO_BASE <dbl>
Convert Weekly to Monthly

With the accurate regression metrics now implemented, we need to
aggregate the weekly data into monthly data. We will create a new data
set using the former data set we just created. This data set will
aggregate the information of the former data set by month, product line,
and factory ID. We will also re implement the regression statistics to
avoid compounding calculations that may affect accurate data metrics.
This data set will not include products that had zero production. Based
on previous data set observations we can note that which factories are
exclusive to the products they produce. Lastly, we will implement
production metrics based on the implemented regression metrics to give
us an idea of the costs to produce each product.

## # A tibble: 174 × 8
##    Month   PRODUCTLINE      factory_id TOTAL_UNITS_PRODUCED REGRESSION_CPU
##    <chr>   <chr>                 <dbl>                <dbl>          <dbl>
##  1 2003-01 Classic_Cars              0                   11           83.7
##  2 2003-01 Motorcycles               1                   57           75.1
##  3 2003-01 Planes                    2                   25           83.1
##  4 2003-01 Ships                     0                  123           15.9
##  5 2003-01 Trucks_and_Buses          1                   12           91.0
##  6 2003-01 Vintage_Cars              2                   45           66.7
##  7 2003-02 Classic_Cars              0                   10           83.7
##  8 2003-02 Motorcycles               1                   15           75.1
##  9 2003-02 Planes                    2                   62           83.1
## 10 2003-02 Ships                     0                   53           15.9
## # ℹ 164 more rows
## # ℹ 3 more variables: REG_FACTORY_BASE_COST <dbl>, REG_PROD_COST_NO_BASE <dbl>,
## #   AVG_PRODUCTION_COST_W_BASE <dbl>
…
## `summarise()` has regrouped the output.
## ℹ Summaries were computed grouped by MONTH_ORDERED and PRODUCTLINE.
## ℹ Output is grouped by MONTH_ORDERED.
## ℹ Use `summarise(.groups = "drop_last")` to silence this message.
## ℹ Use `summarise(.by = c(MONTH_ORDERED, PRODUCTLINE))` for per-operation
##   grouping (`?dplyr::dplyr_by`) instead.

## # A tibble: 180 × 8
## # Groups:   MONTH_ORDERED [29]
##    MONTH_ORDERED PRODUCTLINE      MIN_PRICE_SOLD AVG_PRICE_SOLD MAX_PRICE_SOLD
##    <chr>         <chr>                     <dbl>          <dbl>          <dbl>
##  1 2003-01       Classic_Cars               39.6           89.5          100  
##  2 2003-01       Trains                     53.3           59.6           65.9
##  3 2003-01       Trucks_and_Buses           47.6           88.8          100  
##  4 2003-01       Vintage_Cars               31.2           75.7          100  
##  5 2003-02       Classic_Cars              100            100            100  
##  6 2003-02       Motorcycles                70.9           92.8          100  
##  7 2003-02       Planes                     52.6           80.9          100  
##  8 2003-02       Ships                      56.8           80.9          100  
##  9 2003-02       Trains                    100            100            100  
## 10 2003-02       Vintage_Cars               40.2           75.1          100  
## # ℹ 170 more rows
## # ℹ 3 more variables: AVG_SHIPPED_PER_ORDER <dbl>, TOTAL_SHIPPED <dbl>,
## #   TOTAL_SALES <dbl>

Lastly, we will combine the sales data with our factory data. With
these two conjoined, we will implement revenue and profit metrics. Our
Revenue metrics will range from min, avg, and max revenue based on the
summary metrics we gathered regarding our sale prices. This data will
give us an idea of our revenue ranges. The same will be done with our
profit margins. However, we will implement our actual profit margins
based on our total sales and production costs.

## # A tibble: 197 × 24
##    Month   PRODUCTLINE      factory_id TOTAL_UNITS_PRODUCED REGRESSION_CPU
##    <chr>   <chr>            <fct>                     <dbl>          <dbl>
##  1 2003-01 Classic_Cars     0                            11           83.7
##  2 2003-01 Motorcycles      1                            57           75.1
##  3 2003-01 Planes           2                            25           83.1
##  4 2003-01 Ships            0                           123           15.9
##  5 2003-01 Trucks_and_Buses 1                            12           91.0
##  6 2003-01 Vintage_Cars     2                            45           66.7
##  7 2003-02 Classic_Cars     0                            10           83.7
##  8 2003-02 Motorcycles      1                            15           75.1
##  9 2003-02 Planes           2                            62           83.1
## 10 2003-02 Ships            0                            53           15.9
## # ℹ 187 more rows
## # ℹ 19 more variables: REG_FACTORY_BASE_COST <dbl>,
## #   REG_PROD_COST_NO_BASE <dbl>, AVG_PRODUCTION_COST_W_BASE <dbl>,
## #   MIN_PRICE_SOLD <dbl>, AVG_PRICE_SOLD <dbl>, MAX_PRICE_SOLD <dbl>,
## #   AVG_SHIPPED_PER_ORDER <dbl>, TOTAL_SHIPPED <dbl>, TOTAL_SALES <dbl>,
## #   MIN_PRODUCT_PROFIT <dbl>, AVG_PRODUCT_PROFIT <dbl>,
## #   MAX_PRODUCT_PROFIT <dbl>, MIN_TOTAL_REVENUE <dbl>, …
…
We first begin this process by grouping our original production data
by months. We will also implement summary metric such as total
production costs, and total units produced. The grouped data set will
also implement our regression metrics indicated by our regression models
predicted costs, and calculations of our average CPU’s by dividing our
predicted monthly costs by our actual production. We will also include
the variance between actual and predicted for further comparisons.

## # A tibble: 29 × 7
##    Month MONTHLY_PRODUCTION ACTUAL_MONTHLY_COST PRED_MONTHLY_COST ACTUAL_AVG_CPU
##    <chr>              <dbl>               <dbl>             <dbl>          <dbl>
##  1 2003…                273              16381.            17083.           60.0
##  2 2003…                242              22112.            21228.           91.4
##  3 2003…                321              27134.            24533.           84.5
##  4 2003…                306              25890.            22440.           84.6
##  5 2003…                293              24193.            22478.           82.6
##  6 2003…                318              26670.            24331.           83.9
##  7 2003…                241              23390.            20639.           97.1
##  8 2003…                456              29889.            30969.           65.5
##  9 2003…                228              18842.            18252.           82.6
## 10 2003…                313              24358.            21557.           77.8
## # ℹ 19 more rows
## # ℹ 2 more variables: REGRESSION_AVG_CPU <dbl>, CPU_VARIANCE <dbl>

For our sales implementation, we will create another monthly sales
data set. Only grouping the sales data by month as opposed to month and
product line. Similarly to the former sales set, we will also include
the ranged metrics of our selling prices.

## # A tibble: 29 × 7
##    MONTH_ORDERED MIN_PRICE_SOLD AVG_PRICE_SOLD MAX_PRICE_SOLD
##    <chr>                  <dbl>          <dbl>          <dbl>
##  1 2003-01                 31.2           82.1            100
##  2 2003-02                 40.2           83.9            100
##  3 2003-03                 32.1           81.7            100
##  4 2003-04                 30.1           84.9            100
##  5 2003-05                 31.0           82.0            100
##  6 2003-06                 38.2           84.3            100
##  7 2003-07                 35.9           86.2            100
##  8 2003-08                 35.8           83.2            100
##  9 2003-09                 33.2           84.3            100
## 10 2003-10                 27.2           84.6            100
## # ℹ 19 more rows
## # ℹ 3 more variables: AVG_SHIPPED_PER_ORDER <dbl>, TOTAL_SHIPPED <dbl>,
## #   TOTAL_SALES <dbl>

Lastly, we will combine the two data sets. This combination will be
implemented by a full join of both sets. Post join, Revenue ranges will
be calculated, and so too will profit ranges. The Profit ranges will
also include the Actual profit of our company. Actual profit is
calculated by taking our actual sales and subtracting them by our actual
monthly costs.

## # A tibble: 29 × 23
##    Month MONTHLY_PRODUCTION ACTUAL_MONTHLY_COST PRED_MONTHLY_COST ACTUAL_AVG_CPU
##    <chr>              <dbl>               <dbl>             <dbl>          <dbl>
##  1 2003…                273              16381.            17083.           60.0
##  2 2003…                242              22112.            21228.           91.4
##  3 2003…                321              27134.            24533.           84.5
##  4 2003…                306              25890.            22440.           84.6
##  5 2003…                293              24193.            22478.           82.6
##  6 2003…                318              26670.            24331.           83.9
##  7 2003…                241              23390.            20639.           97.1
##  8 2003…                456              29889.            30969.           65.5
##  9 2003…                228              18842.            18252.           82.6
## 10 2003…                313              24358.            21557.           77.8
## # ℹ 19 more rows
## # ℹ 18 more variables: REGRESSION_AVG_CPU <dbl>, CPU_VARIANCE <dbl>,
## #   MIN_PRICE_SOLD <dbl>, AVG_PRICE_SOLD <dbl>, MAX_PRICE_SOLD <dbl>,
## #   AVG_SHIPPED_PER_ORDER <dbl>, TOTAL_SHIPPED <dbl>, TOTAL_SALES <dbl>,
## #   MIN_PRODUCT_PROFIT <dbl>, AVG_PRODUCT_PROFIT <dbl>,
## #   MAX_PRODUCT_PROFIT <dbl>, MIN_TOTAL_REVENUE <dbl>, AVG_TOTAL_REVENUE <dbl>,
## #   MAX_TOTAL_REVENUE <dbl>, MIN_TOTAL_PROFIT <dbl>, AVG_TOTAL_PROFIT <dbl>, …
…
